…
    Rows: 87 Columns: 1
    ── Column specification ────────────────────────────────────────────────────────
    Delimiter: "\001"
    chr (1): pdf_line

    ℹ Use `spec()` to retrieve the full column specification for this data.
    ℹ Specify the column types or set `show_col_types = FALSE` to quiet this message.

``` r
pdf_tbl_raw
```

    # A tibble: 87 × 1
       pdf_line                                                                     
       <chr>                                                                        
     1 "                                       List of LIC DSAs for PRGT-Eligible C…
     2 "                                                   As of January 31, 2023"  
     3 "                                                        Per latest DSA publ…
     4 "                                                                           …
     5 "                                                                           …
     6 "                                       Latest publication       Risk of deb…
     7 "Country                                                                    …
     8 "                                              date               distress 1…
     9 "Afghanistan                                  6/28/21                High   …
    10 "Bangladesh                                    3/7/22                Low    …
    # … with 77 more rows
…
  select(country_name, iso3c,date_latest_pub, 
         risk_of_distress, joint_w_wb,
         date_latest_exec_board_not_published, country_notes) |> 
  add_column(dsa_list_date = dsa_list_as_of_date)

  
  


pdf_processed
```

    # A tibble: 70 × 8
       country_name   iso3c date_lat…¹ risk_…² joint…³ date_lat…⁴ count…⁵ dsa_list…⁶
       <chr>          <chr> <date>     <chr>   <chr>   <date>     <chr>   <date>    
     1 Afghanistan    AFG   2021-06-28 High    Yes     NA         ""      2023-01-31
     2 Bangladesh     BGD   2022-03-07 Low     Yes     2023-01-30 ""      2023-01-31
     3 Benin          BEN   2022-12-20 Modera… <NA>    NA         ""      2023-01-31
     4 Bhutan         BTN   2022-05-24 Modera… Yes     NA         ""      2023-01-31
     5 Burkina Faso   BFA   2020-11-18 Modera… Yes     NA         ""      2023-01-31
     6 Burundi        BDI   2022-07-29 High    Yes     NA         ""      2023-01-31
     7 Cambodia       KHM   2022-12-18 Low     Yes     NA         ""      2023-01-31
     8 Cameroon       CMR   2022-08-04 High    Yes     NA         "3/"    2023-01-31
     9 Cape Verde     CPV   2022-07-21 Modera… Yes     NA         "3/"    2023-01-31
    10 Central Afric… CAF   2021-02-01 High    Yes     NA         ""      2023-01-31
    # … with 60 more rows, and abbreviated variable names ¹​date_latest_pub,
    #   ²​risk_of_distress, ³​joint_w_wb, ⁴​date_latest_exec_board_not_published,
    #   ⁵​country_notes, ⁶​dsa_list_date
…
